{
    "material": 
    {
        "parent":"materialtemplate.json",
        "property": 
        [
            {
                "name":"AlbedoMap",
                "value":"diffusemap.texture"
            }
        ],
        "shader":
        [
            {
                "name":"VertexShader",
                "value":"<platform>/default.vert"
            },
            {
                "name":"FragmentShader",
                "value":"<platform>/default.frag"
            }
        ],
        "renderstate":
        {
            "blendstate":"opaque",
            "cullmode":"cull_ccw"
        }
    }
}